{
  "__type__": "cc.SpriteFrame",
  "content": {
    "name": "欧阳修",
    "texture": "4fd37118-6025-44f0-927f-29625b005cbb",
    "atlas": "",
    "rect": [
      0,
      0,
      167,
      167
    ],
    "offset": [
      0,
      0
    ],
    "originalSize": [
      167,
      167
    ],
    "capInsets": [
      0,
      0,
      0,
      0
    ]
  }
}