{
  "__type__": "cc.SpriteFrame",
  "content": {
    "name": "貔貅",
    "texture": "db5ed3a0-5d12-4e65-ab4c-e412678f2d60",
    "atlas": "",
    "rect": [
      5,
      13,
      120,
      88
    ],
    "offset": [
      0,
      0.5
    ],
    "originalSize": [
      130,
      115
    ],
    "capInsets": [
      0,
      0,
      0,
      0
    ]
  }
}