{
  "__type__": "cc.SpriteFrame",
  "content": {
    "name": "title_shejiaoxinxi",
    "texture": "1273311e-4e35-4c0f-a500-19f39ee1b518",
    "atlas": "",
    "rect": [
      0,
      3,
      662,
      191
    ],
    "offset": [
      0,
      -1.5
    ],
    "originalSize": [
      662,
      194
    ],
    "capInsets": [
      0,
      0,
      0,
      0
    ]
  }
}