{
  "__type__": "cc.SpriteFrame",
  "content": {
    "name": "item_11",
    "texture": "2fc19c57-70b7-4dc0-ab19-fa9699cd10cf",
    "atlas": "",
    "rect": [
      25,
      0,
      68,
      119
    ],
    "offset": [
      -1,
      0.5
    ],
    "originalSize": [
      120,
      120
    ],
    "capInsets": [
      0,
      0,
      0,
      0
    ]
  }
}