{
  "__type__": "cc.SpriteFrame",
  "content": {
    "name": "title_zhuanzengjilu",
    "texture": "e5ed70f6-84a7-4c3d-8acb-31b0be8dab94",
    "atlas": "",
    "rect": [
      0,
      0,
      654,
      178
    ],
    "offset": [
      0,
      14.5
    ],
    "originalSize": [
      654,
      207
    ],
    "capInsets": [
      0,
      0,
      0,
      0
    ]
  }
}