{
  "__type__": "cc.SpriteFrame",
  "content": {
    "name": "兰",
    "texture": "be93fdf1-1620-46aa-af30-eb1035912c6e",
    "atlas": "",
    "rect": [
      0,
      0,
      101,
      104
    ],
    "offset": [
      0,
      0
    ],
    "originalSize": [
      101,
      104
    ],
    "capInsets": [
      0,
      0,
      0,
      0
    ]
  }
}