{
  "__type__": "cc.SpriteFrame",
  "content": {
    "name": "item_25",
    "texture": "d1c5702e-2bbf-452a-950a-379f9a410536",
    "atlas": "",
    "rect": [
      15,
      0,
      87,
      120
    ],
    "offset": [
      -1.5,
      0
    ],
    "originalSize": [
      120,
      120
    ],
    "capInsets": [
      0,
      0,
      0,
      0
    ]
  }
}