{
  "__type__": "cc.SpriteFrame",
  "content": {
    "name": "title_tishi",
    "texture": "b17fc3fc-e0e4-40cf-afdb-9731f762dc21",
    "atlas": "",
    "rect": [
      0,
      0,
      327,
      107
    ],
    "offset": [
      0,
      0
    ],
    "originalSize": [
      327,
      107
    ],
    "capInsets": [
      0,
      0,
      0,
      0
    ]
  }
}