{
  "__type__": "cc.SpriteFrame",
  "content": {
    "name": "tietu",
    "texture": "296f4d41-7207-4014-9e17-089b31d42211",
    "atlas": "",
    "rect": [
      0,
      0,
      236,
      125
    ],
    "offset": [
      0,
      0
    ],
    "originalSize": [
      236,
      125
    ],
    "capInsets": [
      0,
      0,
      0,
      0
    ]
  }
}