{
  "__type__": "cc.SpriteFrame",
  "content": {
    "name": "item_13",
    "texture": "90f2bd3d-60b8-432f-bcb1-2df6cdb6c0b0",
    "atlas": "",
    "rect": [
      6,
      1,
      107,
      119
    ],
    "offset": [
      -0.5,
      -0.5
    ],
    "originalSize": [
      120,
      120
    ],
    "capInsets": [
      0,
      0,
      0,
      0
    ]
  }
}