{
  "__type__": "cc.SpriteFrame",
  "content": {
    "name": "bg",
    "texture": "2204cf84-c3e0-4ef8-8368-6973ae81798e",
    "atlas": "",
    "rect": [
      0,
      0,
      750,
      1334
    ],
    "offset": [
      0,
      0
    ],
    "originalSize": [
      750,
      1334
    ],
    "capInsets": [
      0,
      0,
      0,
      0
    ]
  }
}