{
  "__type__": "cc.SpriteFrame",
  "content": {
    "name": "柳宗元",
    "texture": "231c3b3b-9338-4e5b-b8cd-d48b407943a9",
    "atlas": "",
    "rect": [
      0,
      0,
      134,
      153
    ],
    "offset": [
      0,
      0
    ],
    "originalSize": [
      134,
      153
    ],
    "capInsets": [
      0,
      0,
      0,
      0
    ]
  }
}