{
  "__type__": "cc.SpriteFrame",
  "content": {
    "name": "fenxiang",
    "texture": "bede4390-7e99-42e2-a04f-c69fa74dfea4",
    "atlas": "",
    "rect": [
      0,
      0,
      81,
      83
    ],
    "offset": [
      0,
      0
    ],
    "originalSize": [
      81,
      83
    ],
    "capInsets": [
      0,
      0,
      0,
      0
    ]
  }
}