{
  "__type__": "cc.SpriteFrame",
  "content": {
    "name": "commonBoxIcon03",
    "texture": "2c26e853-a6f8-43aa-8789-5f0fc5a6730b",
    "atlas": "",
    "rect": [
      0,
      0,
      82,
      82
    ],
    "offset": [
      0,
      0
    ],
    "originalSize": [
      82,
      82
    ],
    "capInsets": [
      0,
      0,
      0,
      0
    ]
  }
}