{
  "__type__": "cc.SpriteFrame",
  "content": {
    "name": "ju",
    "texture": "342589f0-c758-4b93-8cf2-034059763a89",
    "atlas": "",
    "rect": [
      0,
      0,
      102,
      106
    ],
    "offset": [
      0,
      0
    ],
    "originalSize": [
      102,
      106
    ],
    "capInsets": [
      0,
      0,
      0,
      0
    ]
  }
}