{
  "__type__": "cc.SpriteFrame",
  "content": {
    "name": "dianshi",
    "texture": "47c9dd52-3e1c-4393-a3e5-de33d208369a",
    "atlas": "",
    "rect": [
      1,
      1,
      82,
      79
    ],
    "offset": [
      0.5,
      0
    ],
    "originalSize": [
      83,
      81
    ],
    "capInsets": [
      0,
      0,
      0,
      0
    ]
  }
}