{
  "__type__": "cc.SpriteFrame",
  "content": {
    "name": "goumai",
    "texture": "0e1325b0-89ef-4123-af16-57aaa494e1fb",
    "atlas": "",
    "rect": [
      0,
      0,
      588,
      170
    ],
    "offset": [
      0,
      0
    ],
    "originalSize": [
      588,
      170
    ],
    "capInsets": [
      0,
      0,
      0,
      0
    ]
  }
}