{
  "__type__": "cc.SpriteFrame",
  "content": {
    "name": "di_02",
    "texture": "67f3c7ae-dd49-4490-8d07-57134b6dfe7f",
    "atlas": "",
    "rect": [
      0,
      0,
      210,
      78
    ],
    "offset": [
      0,
      0
    ],
    "originalSize": [
      210,
      78
    ],
    "capInsets": [
      0,
      0,
      0,
      0
    ]
  }
}