{
  "__type__": "cc.SpriteFrame",
  "content": {
    "name": "砚",
    "texture": "257e44dc-3887-48f0-9bed-766bb92d413b",
    "atlas": "",
    "rect": [
      0,
      0,
      126,
      108
    ],
    "offset": [
      0,
      0
    ],
    "originalSize": [
      126,
      108
    ],
    "capInsets": [
      0,
      0,
      0,
      0
    ]
  }
}