{
  "__type__": "cc.SpriteFrame",
  "content": {
    "name": "红楼梦",
    "texture": "06ee2271-4303-49d0-8d42-74f1ed90fc24",
    "atlas": "",
    "rect": [
      0,
      0,
      122,
      129
    ],
    "offset": [
      0,
      0
    ],
    "originalSize": [
      122,
      129
    ],
    "capInsets": [
      0,
      0,
      0,
      0
    ]
  }
}