{
  "__type__": "cc.SpriteFrame",
  "content": {
    "name": "diban_01",
    "texture": "b1659af7-9344-48d1-ba76-a324da57d28a",
    "atlas": "",
    "rect": [
      0,
      0,
      951,
      1712
    ],
    "offset": [
      0,
      0
    ],
    "originalSize": [
      951,
      1712
    ],
    "capInsets": [
      190,
      451,
      166,
      475
    ]
  }
}