{
  "__type__": "cc.SpriteFrame",
  "content": {
    "name": "item_32",
    "texture": "a9375e56-9b9d-4471-8954-3ec36b9e4efa",
    "atlas": "",
    "rect": [
      25,
      0,
      84,
      120
    ],
    "offset": [
      7,
      0
    ],
    "originalSize": [
      120,
      120
    ],
    "capInsets": [
      0,
      0,
      0,
      0
    ]
  }
}