{
  "__type__": "cc.SpriteFrame",
  "content": {
    "name": "kuang",
    "texture": "d13a766b-6dcf-4ad2-88fb-5e0a4b25bc38",
    "atlas": "",
    "rect": [
      0,
      0,
      442,
      302
    ],
    "offset": [
      0,
      0.5
    ],
    "originalSize": [
      442,
      303
    ],
    "capInsets": [
      119,
      101.5,
      115,
      75.5
    ]
  }
}