{
  "__type__": "cc.SpriteFrame",
  "content": {
    "name": "kaishichoujiang",
    "texture": "aa2baf0d-1a00-4fcb-ad59-f00843a717bc",
    "atlas": "",
    "rect": [
      0,
      0,
      222,
      87
    ],
    "offset": [
      0,
      0
    ],
    "originalSize": [
      222,
      87
    ],
    "capInsets": [
      0,
      0,
      0,
      0
    ]
  }
}