{
  "__type__": "cc.SpriteFrame",
  "content": {
    "name": "yuanxing_di",
    "texture": "6bd9fdfd-15a9-48b4-b36d-ef2631d7b66a",
    "atlas": "",
    "rect": [
      0,
      0,
      143,
      63
    ],
    "offset": [
      0,
      0
    ],
    "originalSize": [
      143,
      63
    ],
    "capInsets": [
      0,
      0,
      0,
      0
    ]
  }
}