{
  "__type__": "cc.SpriteFrame",
  "content": {
    "name": "墨",
    "texture": "17afe751-ebe7-45b3-9fb2-264c77923e68",
    "atlas": "",
    "rect": [
      0,
      0,
      101,
      104
    ],
    "offset": [
      0,
      0
    ],
    "originalSize": [
      101,
      104
    ],
    "capInsets": [
      0,
      0,
      0,
      0
    ]
  }
}