{
  "__type__": "cc.SpriteFrame",
  "content": {
    "name": "suipian_bi",
    "texture": "7d354def-ddae-45a8-bd62-d36f206cb1b0",
    "atlas": "",
    "rect": [
      0,
      0,
      102,
      106
    ],
    "offset": [
      0,
      0
    ],
    "originalSize": [
      102,
      106
    ],
    "capInsets": [
      0,
      0,
      0,
      0
    ]
  }
}