{
  "__type__": "cc.SpriteFrame",
  "content": {
    "name": "item_di",
    "texture": "630222a7-8246-4018-b27c-a7bb13da656f",
    "atlas": "",
    "rect": [
      0,
      0,
      179,
      154
    ],
    "offset": [
      0,
      0
    ],
    "originalSize": [
      179,
      154
    ],
    "capInsets": [
      0,
      0,
      0,
      0
    ]
  }
}