{
  "__type__": "cc.SpriteFrame",
  "content": {
    "name": "paihangbang",
    "texture": "6e682ec6-2ecb-44d8-8bb6-36ed7459f66a",
    "atlas": "",
    "rect": [
      0,
      0,
      98,
      98
    ],
    "offset": [
      0,
      0
    ],
    "originalSize": [
      98,
      98
    ],
    "capInsets": [
      0,
      0,
      0,
      0
    ]
  }
}