{
  "__type__": "cc.SpriteFrame",
  "content": {
    "name": "kuang",
    "texture": "40a9c783-88a3-4ab1-b895-d3891e23d10e",
    "atlas": "",
    "rect": [
      0,
      0,
      119,
      146
    ],
    "offset": [
      0,
      0
    ],
    "originalSize": [
      119,
      146
    ],
    "capInsets": [
      0,
      0,
      0,
      0
    ]
  }
}