{
  "__type__": "cc.SpriteFrame",
  "content": {
    "name": "金蟾",
    "texture": "814881cd-1f38-45fa-8cd8-a1ad1cf3446d",
    "atlas": "",
    "rect": [
      0,
      0,
      109,
      115
    ],
    "offset": [
      0,
      0
    ],
    "originalSize": [
      109,
      115
    ],
    "capInsets": [
      0,
      0,
      0,
      0
    ]
  }
}