{
  "__type__": "cc.SpriteFrame",
  "content": {
    "name": "西游记",
    "texture": "f3f504fe-0caa-40ad-b145-726cbde00af3",
    "atlas": "",
    "rect": [
      0,
      0,
      120,
      129
    ],
    "offset": [
      0,
      0
    ],
    "originalSize": [
      120,
      129
    ],
    "capInsets": [
      0,
      0,
      0,
      0
    ]
  }
}